<svg width="47" height="32" viewBox="0 0 47 32" fill="none" xmlns="http://www.w3.org/2000/svg">
<path d="M21.0898 15.1497H24.2558V14.5925C24.2549 14.322 24.1569 14.0607 23.9799 13.8563C23.8028 13.6518 23.5583 13.5175 23.2907 13.4779L21.211 13.175" stroke="white" stroke-miterlimit="10" stroke-linecap="round"/>
<path d="M34.1901 17.6696V19.2082C34.1901 19.5594 34.3296 19.8963 34.578 20.1447C34.8264 20.3931 35.1633 20.5327 35.5146 20.5327H36.2577C36.609 20.5327 36.9459 20.3931 37.1943 20.1447C37.4427 19.8963 37.5822 19.5594 37.5822 19.2082V12.2543L38.9431 11.7576C39.0059 11.7358 39.0602 11.6948 39.0986 11.6405C39.137 11.5862 39.1574 11.5213 39.1571 11.4548V10.3685C39.1571 10.3263 39.1487 10.2844 39.1324 10.2455C39.1161 10.2065 39.0923 10.1712 39.0622 10.1415C39.0322 10.1118 38.9965 10.0884 38.9574 10.0726C38.9182 10.0568 38.8763 10.0489 38.834 10.0495H37.2955C37.0807 10.0476 36.8703 9.98863 36.6858 9.87865C36.5013 9.76866 36.3494 9.6116 36.2456 9.42356L34.711 6.59681C34.5648 6.32602 34.3479 6.09999 34.0834 5.94282C33.8188 5.78565 33.5165 5.70323 33.2088 5.70436H23.9936C23.686 5.70367 23.3839 5.78627 23.1194 5.94339C22.8549 6.10052 22.6379 6.32631 22.4914 6.59681L20.9569 9.42356C20.853 9.6116 20.7011 9.76866 20.5166 9.87865C20.3321 9.98863 20.1217 10.0476 19.9069 10.0495H18.3684C18.2838 10.0495 18.2026 10.0831 18.1428 10.1429C18.083 10.2027 18.0493 10.2839 18.0493 10.3685V11.4548C18.0487 11.5208 18.0686 11.5854 18.1062 11.6396C18.1438 11.6938 18.1973 11.7351 18.2593 11.7576L19.6202 12.2543V19.196C19.6202 19.5473 19.7598 19.8842 20.0082 20.1326C20.2566 20.381 20.5935 20.5206 20.9448 20.5206H21.6878C22.0391 20.5206 22.376 20.381 22.6244 20.1326C22.8728 19.8842 23.0123 19.5473 23.0123 19.196V17.6575L34.1901 17.6696Z" stroke="white" stroke-miterlimit="10" stroke-linecap="round"/>
<path d="M22.4512 10.0859H26.8246H34.7516" stroke="white" stroke-miterlimit="10" stroke-linecap="round"/>
<path d="M35.9999 13.175L33.9202 13.4779C33.6526 13.5175 33.4081 13.6518 33.231 13.8563C33.0539 14.0607 32.956 14.322 32.9551 14.5925V15.1497H36.121" stroke="white" stroke-miterlimit="10" stroke-linecap="round"/>
<path d="M26.2871 15.2024H30.9149" stroke="white" stroke-miterlimit="10" stroke-linecap="round"/>
<path d="M30.9149 15.2025L31.1249 13.3691H28.601H26.0771L26.2871 15.2025" stroke="white" stroke-miterlimit="10" stroke-linecap="round"/>
<path d="M23.0121 17.6697H21.627" stroke="white" stroke-miterlimit="10" stroke-linecap="round"/>
<path d="M34.1904 17.6697H35.9753" stroke="white" stroke-miterlimit="10" stroke-linecap="round"/>
<path d="M23.0124 17.6697H21.2275" stroke="white" stroke-miterlimit="10" stroke-linecap="round"/>
<path d="M7.56982 14.4473H13.5222" stroke="white" stroke-miterlimit="10" stroke-linecap="round"/>
<path d="M7.56982 16.9912H13.5222" stroke="white" stroke-miterlimit="10" stroke-linecap="round"/>
<path d="M7.56982 19.5315H13.5222" stroke="white" stroke-miterlimit="10" stroke-linecap="round"/>
<path d="M1 27.5352H45.6748V29.1504C45.6748 29.641 45.48 30.1114 45.1331 30.4582C44.7863 30.8051 44.3158 30.9999 43.8253 30.9999H2.84951C2.60663 30.9999 2.36613 30.9521 2.14174 30.8592C1.91735 30.7662 1.71344 30.63 1.5417 30.4582C1.36996 30.2865 1.23373 30.0826 1.14079 29.8582C1.04784 29.6338 1 29.3933 1 29.1504V27.5352Z" stroke="white" stroke-miterlimit="10" stroke-linecap="round"/>
<path d="M5.65613 1H41.0228C41.2519 1 41.4788 1.04512 41.6904 1.13279C41.9021 1.22046 42.0944 1.34896 42.2564 1.51095C42.4184 1.67294 42.5469 1.86526 42.6345 2.07692C42.7222 2.28857 42.7673 2.51541 42.7673 2.74451V27.5351H3.91162V2.74451C3.91162 2.28183 4.0954 1.83811 4.42256 1.51095C4.74972 1.18379 5.19346 1 5.65613 1V1Z" stroke="white" stroke-miterlimit="10" stroke-linecap="round"/>
<path d="M13.6759 5.74097H7.4126V11.7943H13.6759V5.74097Z" stroke="white" stroke-miterlimit="10" stroke-linecap="round"/>
</svg>
