<svg width="62" height="53" viewBox="0 0 62 53" fill="none" xmlns="http://www.w3.org/2000/svg">
<path d="M22.6358 37.8915H1.92725C1.67916 37.8853 1.44333 37.7824 1.27009 37.6047C1.09685 37.427 0.999922 37.1886 1 36.9405V1.71936C1.0062 1.47128 1.10913 1.23545 1.28682 1.0622C1.4645 0.888963 1.70286 0.792037 1.95102 0.792114H60.049C60.3012 0.792114 60.5431 0.892311 60.7215 1.07066C60.8998 1.24901 61 1.49091 61 1.74314V36.9595C61 37.2117 60.8998 37.4536 60.7215 37.632C60.5431 37.8103 60.3012 37.9105 60.049 37.9105H39.3262" stroke="white" stroke-width="1.3" stroke-miterlimit="10"/>
<path d="M30.99 46.2367C35.5937 46.2367 39.3257 42.5047 39.3257 37.901C39.3257 33.2973 35.5937 29.5653 30.99 29.5653C26.3863 29.5653 22.6543 33.2973 22.6543 37.901C22.6543 42.5047 26.3863 46.2367 30.99 46.2367Z" stroke="white" stroke-width="1.3" stroke-miterlimit="10"/>
<path d="M30.7917 43.2076C33.8593 43.2076 36.3461 40.7208 36.3461 37.6532C36.3461 34.5855 33.8593 32.0988 30.7917 32.0988C27.7241 32.0988 25.2373 34.5855 25.2373 37.6532C25.2373 40.7208 27.7241 43.2076 30.7917 43.2076Z" fill="white" fill-opacity="0.3"/>
<path d="M39.3498 28.9757C38.2521 27.8778 36.9489 27.0069 35.5145 26.4127C34.0802 25.8185 32.5429 25.5127 30.9903 25.5127C29.4378 25.5127 27.9005 25.8185 26.4662 26.4127C25.0318 27.0069 23.7286 27.8778 22.6309 28.9757" stroke="white" stroke-width="1.3" stroke-miterlimit="10" stroke-linecap="round"/>
<path d="M33.71 45.9467L39.0499 51.2867V45.9657H44.3709L39.0309 40.6257" stroke="white" stroke-width="1.3" stroke-miterlimit="10" stroke-linecap="round"/>
<path d="M28.2656 45.9467L22.9303 51.2867V45.9657H17.6094L22.9494 40.6257" stroke="white" stroke-width="1.3" stroke-miterlimit="10" stroke-linecap="round"/>
<path d="M43.9007 16.2653H18.3467" stroke="white" stroke-width="1.3" stroke-miterlimit="10" stroke-linecap="round"/>
<path d="M13.8252 10.2976H48.3806" stroke="white" stroke-width="1.3" stroke-miterlimit="10" stroke-linecap="round"/>
</svg>
