<svg width="9" height="15" viewBox="0 0 9 15" fill="none" xmlns="http://www.w3.org/2000/svg">
<path fill-rule="evenodd" clip-rule="evenodd" d="M5.10752 7.49998L0.811035 13.0854L3.18891 14.9146L8.89242 7.49998L3.18891 0.0854185L0.811034 1.91455L5.10752 7.49998Z" fill="#191919"/>
</svg>
